EPsy 8251 - broadband.csv
…
hs_2019: Percentage of the county with a high school diploma (2015–2019)

some_college_2019: Percentage of the county with some college or an associate’s degree (2015–2019)

college_2019: Percentage of the county with a bachelor’s degree, or higher (2015–2019)

Preview

# Import data
broadband = readr::read_csv(file = "https://raw.githubusercontent.com/zief0002/rustic-penguin/main/data/broadband.csv")

# View data
broadband

# A tibble: 3,143 × 13
   state county         fips rural_urban metro fcc_availability microsoft_useage
   <chr> <chr>         <dbl>       <dbl> <chr>            <dbl>            <dbl>
 1 AL    Autauga Coun…  1001           2 Metro             0.81             0.28
 2 AL    Baldwin Coun…  1003           3 Metro             0.88             0.3 
 3 AL    Barbour Coun…  1005           6 Nonm…             0.59             0.18
 4 AL    Bibb County    1007           1 Metro             0.29             0.07
 5 AL    Blount County  1009           1 Metro             0.69             0.09
 6 AL    Bullock Coun…  1011           6 Nonm…             0.06             0.05
 7 AL    Butler County  1013           6 Nonm…             0.78             0.11
 8 AL    Calhoun Coun…  1015           3 Metro             0.93             0.32
 9 AL    Chambers Cou…  1017           6 Nonm…             0.82             0.34
10 AL    Cherokee Cou…  1019           6 Nonm…             0.99             0.1 
# ℹ 3,133 more rows
# ℹ 6 more variables: pct_poverty <dbl>, median_income <dbl>, lt_hs_2019 <dbl>,
#   hs_2019 <dbl>, some_college_2019 <dbl>, college_2019 <dbl>
…
