EPsy 8251 - evaluations.csv
…
native_english: Is the professor a native English speaker? (0 = non-native English speaker; 1 = native English speaker)

age: Professor’s age (in years)

female: Is the professor female? (0 = not female; 1 = female)

Preview

# Import Data
evaluations = readr::read_csv(file = "https://raw.githubusercontent.com/zief0002/rustic-penguin/main/data/evaluations.csv")

# View data
evaluations

# A tibble: 94 × 10
   prof_id avg_eval num_courses num_students perc_evaluating  beauty tenured
     <dbl>    <dbl>       <dbl>        <dbl>           <dbl>   <dbl>   <dbl>
 1       1     4              4          416            62.0  0.202        0
 2       2     3.53           3          104            87.0 -0.826        1
 3       3     3.45           2          250            78.5 -0.660        1
 4       4     4.01           8          223            84.3 -0.766        1
 5       5     4.35           6          331            81.8  1.42         0
 6       6     4.44           7         1849            59.8  0.500        1
 7       7     3.84           5          191            81.8 -0.214        0
 8       8     4.03           7          174            84.6 -0.347        1
 9       9     4.26           7          303            73.0  0.0613       0
10      10     4.56          10          191            82.1  0.453        0
# ℹ 84 more rows
# ℹ 3 more variables: native_english <dbl>, age <dbl>, female <dbl>
…
