EPsy 8251 - scoobydoo.csv
…
imdb_rating: Weighted average of all individual IMDb ratings (from 1 to 10)

format: Type of media (TV or Movie)

catchphrase: Number of times any catchphrase (e.g., zoinks, rooby rooby roo) was uttered in the episode or movie

Preview

# Import Data
scoobydoo = readr::read_csv(file = "https://raw.githubusercontent.com/zief0002/rustic-penguin/main/data/scoobydoo.csv")

# View data
scoobydoo

# A tibble: 372 × 8
   title          series_name date_aired engagement caught_by imdb_rating format
   <chr>          <chr>       <chr>           <dbl> <chr>           <dbl> <chr> 
 1 What a Night … Scooby Doo… 9/13/69          6.32 Shaggy/S…         8.1 TV    
 2 A Clue for Sc… Scooby Doo… 9/20/69          6.17 Shaggy/S…         8.1 TV    
 3 Hassle in the… Scooby Doo… 9/27/69          6.12 Shaggy/S…         8   TV    
 4 Mine Your Own… Scooby Doo… 10/4/69          6.05 Fred/Dap…         7.8 TV    
 5 Decoy for a D… Scooby Doo… 10/11/69         5.97 Shaggy/S…         7.5 TV    
 6 What the Hex … Scooby Doo… 10/18/69         5.95 Fred/Dap…         8.4 TV    
 7 Never Ape an … Scooby Doo… 10/25/69         5.88 Fred/Dap…         7.6 TV    
 8 The Backstage… Scooby Doo… 11/8/69          5.92 Shaggy/S…         8.1 TV    
 9 Bedlam in the… Scooby Doo… 11/15/69         5.85 Shaggy/S…         8   TV    
10 A Gaggle of G… Scooby Doo… 11/22/69         5.94 Shaggy/S…         8.5 TV    
# ℹ 362 more rows
# ℹ 1 more variable: catchphrase <dbl>
