EPsy 8251 - work-demands.csv
…
female: Dummy-coded indicator of sex (0 = Not female; 1 = Female)

authority: Standardized measure of job authority. Measured using survey items such as: “Do you influence or set the rate of pay received by others?” and “Do you have the authority to hire or fire others?”. Higher values indicate more authority.

married: Dummy-coded indicator of marital status (0 = Not married; 1 = Married)

Preview

# Import Data
work = readr::read_csv(file = "https://raw.githubusercontent.com/zief0002/rustic-penguin/main/data/work-demands.csv")

# View data
work

# A tibble: 300 × 5
     guilt bound_span_work female authority married
     <dbl>           <dbl>  <dbl>     <dbl>   <dbl>
 1 -1.64           -1.13        1     2.65        1
 2 -0.0272          0.718       1     1.38        1
 3  0.276          -0.0164      1     1.14        1
 4  1.65            1.29        1     1.13        1
 5 -0.149          -0.153       1     0.646       1
 6 -1.47           -2.04        1     1.23        1
 7 -2.09           -1.18        1     3.03        1
 8  1.27            0.204       1     0.171       1
 9  0.140           0.0152      1     1.23        1
10  0.423          -1.26        1    -0.908       1
# ℹ 290 more rows
…
